{
    "id": "f6b24c4c-e236-4d6a-a7bf-cbe8fce4209c",
    "schema": "https://metadata.datadrivendiscovery.org/schemas/v0/pipeline.json",
    "created": "2019-11-21T18:37:10.445970Z",
    "inputs": [
        {
            "name": "inputs"
        }
    ],
    "outputs": [
        {
            "data": "steps.0.produce",
            "name": "results"
        }
    ],
    "steps": [
        {
            "type": "PRIMITIVE",
            "primitive": {
                "id": "4d989759-affd-4a51-a4e6-1a05a5c1d1c8",
                "version": "1.6.8",
                "python_path": "d3m.primitives.classification.general_relational_dataset.GeneralRelationalDataset",
                "name": "General Relational Dataset"
            },
            "arguments": {
                "inputs": {
                    "type": "CONTAINER",
                    "data": "inputs.0"
                }
            },
            "outputs": [
                {
                    "id": "produce"
                }
            ]
        }
    ]
}