{
    "id": "fb1a10f6-21c9-4c1e-b42d-9b54703f77e5",
    "schema": "https://metadata.datadrivendiscovery.org/schemas/v0/pipeline.json",
    "created": "2019-05-17T18:35:23.596305Z",
    "inputs": [
        {
            "name": "inputs"
        }
    ],
    "outputs": [
        {
            "data": "steps.8.produce",
            "name": "final"
        }
    ],
    "steps": [
        {
            "type": "PRIMITIVE",
            "primitive": {
                "id": "dsbox-denormalize(from d3m)",
                "version": "1.5.0",
                "python_path": "d3m.primitives.normalization.denormalize.DSBOX",
                "name": "DSBox denormalize",
                "digest": "46dd84c1b84114e7f1d37d889c261c084ea31401e258b79f177a76a7279d07e0"
            },
            "arguments": {
                "inputs": {
                    "type": "CONTAINER",
                    "data": "inputs.0"
                }
            },
            "outputs": [
                {
                    "id": "produce"
                }
            ]
        },
        {
            "type": "PRIMITIVE",
            "primitive": {
                "id": "4b42ce1e-9b98-4a25-b68e-fad13311eb65",
                "version": "0.3.0",
                "python_path": "d3m.primitives.data_transformation.dataset_to_dataframe.Common",
                "name": "Extract a DataFrame from a Dataset",
                "digest": "e961af90b7d82dcc4900a01fc4bc0cf76c8ca050086cedc9ff043814d770fbb2"
            },
            "arguments": {
                "inputs": {
                    "type": "CONTAINER",
                    "data": "steps.0.produce"
                }
            },
            "outputs": [
                {
                    "id": "produce"
                }
            ]
        },
        {
            "type": "PRIMITIVE",
            "primitive": {
                "id": "4503a4c6-42f7-45a1-a1d4-ed69699cf5e1",
                "version": "0.2.0",
                "python_path": "d3m.primitives.data_transformation.extract_columns_by_semantic_types.DataFrameCommon",
                "name": "Extracts columns by semantic type",
                "digest": "7c7ca2febf05d3138438919635143b6ba2b15606400442ddcf1c7107fa7e8207"
            },
            "arguments": {
                "inputs": {
                    "type": "CONTAINER",
                    "data": "steps.1.produce"
                }
            },
            "outputs": [
                {
                    "id": "produce"
                }
            ],
            "hyperparams": {
                "semantic_types": {
                    "type": "VALUE",
                    "data": [
                        "https://metadata.datadrivendiscovery.org/types/PrimaryKey",
                        "https://metadata.datadrivendiscovery.org/types/Attribute"
                    ]
                }
            }
        },
        {
            "type": "PRIMITIVE",
            "primitive": {
                "id": "4503a4c6-42f7-45a1-a1d4-ed69699cf5e1",
                "version": "0.2.0",
                "python_path": "d3m.primitives.data_transformation.extract_columns_by_semantic_types.DataFrameCommon",
                "name": "Extracts columns by semantic type",
                "digest": "7c7ca2febf05d3138438919635143b6ba2b15606400442ddcf1c7107fa7e8207"
            },
            "arguments": {
                "inputs": {
                    "type": "CONTAINER",
                    "data": "steps.1.produce"
                }
            },
            "outputs": [
                {
                    "id": "produce"
                }
            ],
            "hyperparams": {
                "semantic_types": {
                    "type": "VALUE",
                    "data": [
                        "https://metadata.datadrivendiscovery.org/types/PrimaryKey",
                        "https://metadata.datadrivendiscovery.org/types/SuggestedTarget"
                    ]
                }
            }
        },
        {
            "type": "PRIMITIVE",
            "primitive": {
                "id": "dsbox-cleaning-featurizer",
                "version": "1.5.0",
                "python_path": "d3m.primitives.data_cleaning.cleaning_featurizer.DSBOX",
                "name": "DSBox Cleaning Featurizer",
                "digest": "2524e6ded9f5d5a74d42ec1d920c60fbbd098cb2884bf2f908db3a35979392bf"
            },
            "arguments": {
                "inputs": {
                    "type": "CONTAINER",
                    "data": "steps.2.produce"
                }
            },
            "outputs": [
                {
                    "id": "produce"
                }
            ]
        },
        {
            "type": "PRIMITIVE",
            "primitive": {
                "id": "18f0bb42-6350-3753-8f2d-d1c3da70f279",
                "version": "1.5.0",
                "python_path": "d3m.primitives.data_preprocessing.encoder.DSBOX",
                "name": "ISI DSBox Data Encoder",
                "digest": "c4a4be66bb5fe3aec2d3526dbce5675f9c37fec9f9839a6bb60e41411b6a16c2"
            },
            "arguments": {
                "inputs": {
                    "type": "CONTAINER",
                    "data": "steps.4.produce"
                }
            },
            "outputs": [
                {
                    "id": "produce"
                }
            ]
        },
        {
            "type": "PRIMITIVE",
            "primitive": {
                "id": "7894b699-61e9-3a50-ac9f-9bc510466667",
                "version": "1.5.0",
                "python_path": "d3m.primitives.data_preprocessing.mean_imputation.DSBOX",
                "name": "DSBox Mean Imputer",
                "digest": "3ba62e287acca259a5c36f6b4149496938dd4d99e7914f9c0ea6038242d5a767"
            },
            "arguments": {
                "inputs": {
                    "type": "CONTAINER",
                    "data": "steps.5.produce"
                }
            },
            "outputs": [
                {
                    "id": "produce"
                }
            ]
        },
        {
            "type": "PRIMITIVE",
            "primitive": {
                "id": "7ddf2fd8-2f7f-4e53-96a7-0d9f5aeecf93",
                "version": "1.5.0",
                "python_path": "d3m.primitives.data_transformation.to_numeric.DSBOX",
                "name": "ISI DSBox To Numeric DataFrame",
                "digest": "c8a6dff4d8982c2b2ec772ff00fdeb66b353ce5fea992dabc4b3e3cf1dd07451"
            },
            "arguments": {
                "inputs": {
                    "type": "CONTAINER",
                    "data": "steps.6.produce"
                }
            },
            "outputs": [
                {
                    "id": "produce"
                }
            ]
        },
        {
            "type": "PRIMITIVE",
            "primitive": {
                "id": "2dfa8611-a55d-47d6-afb6-e5d531cf5281",
                "version": "0.1.0",
                "python_path": "d3m.primitives.classification.multilabel_classifier.DSBOX",
                "name": "dsbox-spen-mlclassifier",
                "digest": "773efcaadd1820e562559743bc4fad810edb1099c4928b30e3b8a251312803ff"
            },
            "arguments": {
                "inputs": {
                    "type": "CONTAINER",
                    "data": "steps.7.produce"
                },
                "outputs": {
                    "type": "CONTAINER",
                    "data": "steps.3.produce"
                }
            },
            "outputs": [
                {
                    "id": "produce"
                }
            ]
        }
    ],
    "digest": "87ae5b2b72c2a5a26c3fbc7217b953ab3e2bf73c4b43eced191109d61075f56b"
}
