{
    "id": "46f427f8-0585-4cb9-af2f-415771587f6c",
    "schema": "https://metadata.datadrivendiscovery.org/schemas/v0/pipeline.json",
    "created": "2019-06-21T04:02:12.396835Z",
    "inputs": [
        {
            "name": "inputs"
        }
    ],
    "outputs": [
        {
            "data": "steps.9.produce",
            "name": "output"
        }
    ],
    "steps": [
        {
            "type": "PRIMITIVE",
            "primitive": {
                "id": "4b42ce1e-9b98-4a25-b68e-fad13311eb65",
                "version": "0.3.0",
                "python_path": "d3m.primitives.data_transformation.dataset_to_dataframe.Common",
                "name": "Extract a DataFrame from a Dataset",
                "digest": "a141e6821de7ae586968b0986237745a5510850e6940cf946db9d50d3828b030"
            },
            "arguments": {
                "inputs": {
                    "type": "CONTAINER",
                    "data": "inputs.0"
                }
            },
            "outputs": [
                {
                    "id": "produce"
                }
            ]
        },
        {
            "type": "PRIMITIVE",
            "primitive": {
                "id": "d510cb7a-1782-4f51-b44c-58f0236e47c7",
                "version": "0.5.0",
                "python_path": "d3m.primitives.data_transformation.column_parser.DataFrameCommon",
                "name": "Parses strings into their types",
                "digest": "d95eb0ea8a5e6f9abc0965a97e9c4f5d8f74a3df591c11c4145faea3e581cd06"
            },
            "arguments": {
                "inputs": {
                    "type": "CONTAINER",
                    "data": "steps.0.produce"
                }
            },
            "outputs": [
                {
                    "id": "produce"
                }
            ]
        },
        {
            "type": "PRIMITIVE",
            "primitive": {
                "id": "4503a4c6-42f7-45a1-a1d4-ed69699cf5e1",
                "version": "0.3.0",
                "python_path": "d3m.primitives.data_transformation.extract_columns_by_semantic_types.DataFrameCommon",
                "name": "Extracts columns by semantic type",
                "digest": "2dda31ef0452060bc55070204c5328927e2b2537a03afa6333607e3e4828ab26"
            },
            "arguments": {
                "inputs": {
                    "type": "CONTAINER",
                    "data": "steps.1.produce"
                }
            },
            "outputs": [
                {
                    "id": "produce"
                }
            ],
            "hyperparams": {
                "semantic_types": {
                    "type": "VALUE",
                    "data": [
                        "https://metadata.datadrivendiscovery.org/types/Attribute"
                    ]
                }
            }
        },
        {
            "type": "PRIMITIVE",
            "primitive": {
                "id": "4503a4c6-42f7-45a1-a1d4-ed69699cf5e1",
                "version": "0.3.0",
                "python_path": "d3m.primitives.data_transformation.extract_columns_by_semantic_types.DataFrameCommon",
                "name": "Extracts columns by semantic type",
                "digest": "2dda31ef0452060bc55070204c5328927e2b2537a03afa6333607e3e4828ab26"
            },
            "arguments": {
                "inputs": {
                    "type": "CONTAINER",
                    "data": "steps.1.produce"
                }
            },
            "outputs": [
                {
                    "id": "produce"
                }
            ],
            "hyperparams": {
                "semantic_types": {
                    "type": "VALUE",
                    "data": [
                        "https://metadata.datadrivendiscovery.org/types/TrueTarget"
                    ]
                }
            }
        },
        {
            "type": "PRIMITIVE",
            "primitive": {
                "id": "d016df89-de62-3c53-87ed-c06bb6a23cde",
                "version": "2019.6.7",
                "python_path": "d3m.primitives.data_cleaning.imputer.SKlearn",
                "name": "sklearn.impute.SimpleImputer",
                "digest": "d6902b0ef72b4cd6fc5f79054f7a534404c708e1244e94a2713a9dd525c78eed"
            },
            "arguments": {
                "inputs": {
                    "type": "CONTAINER",
                    "data": "steps.2.produce"
                }
            },
            "outputs": [
                {
                    "id": "produce"
                }
            ],
            "hyperparams": {
                "use_semantic_types": {
                    "type": "VALUE",
                    "data": true
                },
                "return_result": {
                    "type": "VALUE",
                    "data": "replace"
                }
            }
        },
        {
            "type": "PRIMITIVE",
            "primitive": {
                "id": "34f71b2e-17bb-488d-a2ba-b60b8c305539",
                "version": "0.1.0",
                "python_path": "d3m.primitives.data_transformation.dataframe_to_ndarray.Common",
                "name": "DataFrame to ndarray converter",
                "digest": "2288f7142b92ea992c5ee881a17367b08642e046a225f6f3f59e2c23f414cff8"
            },
            "arguments": {
                "inputs": {
                    "type": "CONTAINER",
                    "data": "steps.4.produce"
                }
            },
            "outputs": [
                {
                    "id": "produce"
                }
            ]
        },
        {
            "type": "PRIMITIVE",
            "primitive": {
                "id": "34f71b2e-17bb-488d-a2ba-b60b8c305539",
                "version": "0.1.0",
                "python_path": "d3m.primitives.data_transformation.dataframe_to_ndarray.Common",
                "name": "DataFrame to ndarray converter",
                "digest": "2288f7142b92ea992c5ee881a17367b08642e046a225f6f3f59e2c23f414cff8"
            },
            "arguments": {
                "inputs": {
                    "type": "CONTAINER",
                    "data": "steps.3.produce"
                }
            },
            "outputs": [
                {
                    "id": "produce"
                }
            ]
        },
        {
            "type": "PRIMITIVE",
            "primitive": {
                "id": "fab94f96-74f4-4987-ab45-2a992cb37e0b",
                "version": "0.0.5",
                "python_path": "d3m.primitives.regression.owl_regression.Umich",
                "name": "OWLRegression",
                "digest": "a2525967f91194008c8c835122ad6471d91e04ad3e2f3de54ba50e5a1c3a48e3"
            },
            "arguments": {
                "inputs": {
                    "type": "CONTAINER",
                    "data": "steps.5.produce"
                },
                "outputs": {
                    "type": "CONTAINER",
                    "data": "steps.6.produce"
                }
            },
            "outputs": [
                {
                    "id": "produce"
                }
            ],
            "hyperparams": {
                "normalize": {
                    "type": "VALUE",
                    "data": true
                },
                "learning_rate": {
                    "type": "VALUE",
                    "data": 0.2
                },
                "tol": {
                    "type": "VALUE",
                    "data": 0.001
                },
                "weight_max_val": {
                    "type": "VALUE",
                    "data": 175
                },
                "weight_max_off": {
                    "type": "VALUE",
                    "data": 0
                },
                "weight_min_val": {
                    "type": "VALUE",
                    "data": 0
                },
                "weight_min_off": {
                    "type": "VALUE",
                    "data": 13
                }
            }
        },
        {
            "type": "PRIMITIVE",
            "primitive": {
                "id": "f5241b2e-64f7-44ad-9675-df3d08066437",
                "version": "0.1.0",
                "python_path": "d3m.primitives.data_transformation.ndarray_to_dataframe.Common",
                "name": "ndarray to Dataframe converter",
                "digest": "23d7482449c0b262f1a0991ec0015c00e86c342f283400264d400b332aea020c"
            },
            "arguments": {
                "inputs": {
                    "type": "CONTAINER",
                    "data": "steps.7.produce"
                }
            },
            "outputs": [
                {
                    "id": "produce"
                }
            ]
        },
        {
            "type": "PRIMITIVE",
            "primitive": {
                "id": "8d38b340-f83f-4877-baaa-162f8e551736",
                "version": "0.3.0",
                "python_path": "d3m.primitives.data_transformation.construct_predictions.DataFrameCommon",
                "name": "Construct pipeline predictions output",
                "digest": "96382129c2d9e87a2c0ab0b477b410947e5644d4dfae24e905d16a72d32dc41b"
            },
            "arguments": {
                "inputs": {
                    "type": "CONTAINER",
                    "data": "steps.8.produce"
                },
                "reference": {
                    "type": "CONTAINER",
                    "data": "steps.0.produce"
                }
            },
            "outputs": [
                {
                    "id": "produce"
                }
            ]
        }
    ],
    "digest": "069f6f2a961215b1401cb2209f974aab8b03640f3ceaf9d24fbb580273307fda"
}